{
  "searchquery":"compiter",
  "autocorrect": "<em>computer</em>",
  "meta": {
    "totalResults": 40,
    "currentPage": 1,
    "totalPages": 20
  },
  "results": [
    {
      "id": "1",
      "url": "https://www.geeksforgeeks.org",
      "title": "GeeksforGeeks - A computer science portal for geeks",
      "content": "A Computer Science portal for geeks. It contains well written, well thought and well explained computer science and programming articles, quizzes and ..."
    },
    {
      "id": "2",
      "url": "https://www.expertsystem.com/machine-learning-definition/",
      "title": "What is Machine Learning? A definition - Expert System",
      "content": "Machine learning is an application of artificial intelligence (AI) that provides systems the ability to automatically learn and improve from experience without being explicitly programmed. Machine learning focuses on the development of computer programs that can access data and use it learn for themselves"
    },
    {
      "id": "3",
      "url": "https://www.coursera.org/learn/machine-learning",
      "title": "Machine Learning | Coursera",
      "content": "Machine Learning from Stanford University. Machine learning is the science of getting computers to act without being explicitly programmed. In the past decade, ..."
    },
    {
      "id": "4",
      "url": "https://searchenterpriseai.techtarget.com/definition/machine-learning-ML",
      "title": "What is machine learning (ML)? - Definition from WhatIs.com",
      "content": "Machine learning (ML) is a category of algorithm that allows software applications to become more accurate in predicting outcomes without being explicitly programmed."
    },
    {
      "id": "5",
      "url": "https://www.geeksforgeeks.org/machine-learning/",
      "title": "Machine Learning - GeeksforGeeks",
      "content": "As it is evident from the name, it gives the computer that which makes it more similar to humans: The ability to learn. Machine learning is actively being used ..."
    }
  ],
  "facets": {
    "facetKey1": [
      {
        "id": "1",
        "value": "Wired",
        "count": 20
      },
      {
        "id": "2",
        "value": "Orbit",
        "count": 3
      },
      {
        "id": "3",
        "value": "Software",
        "count": 35
      }
    ],
    "facetKey2": [
      {
        "id": "4",
        "value": "Space",
        "count": 43
      },
      {
        "id": "5",
        "value": "Software",
        "count": 33
      },
      {
        "id": "6",
        "value": "Drone",
        "count": 25
      }
    ]
  }
}